Introduction to working with data in R
…
Let’s unpick what we just did …

Summarise all numeric variables by year-month …

monthly <- AQ %>% 
  mutate(year = year(date), month = month(date, abbr = FALSE, label = TRUE)) %>% 
  group_by(year, month) %>% 
  summarise_if(is.numeric, mean, na.rm = TRUE)

monthly

## # A tibble: 90 x 11
## # Groups:   year [8]
##     year month        ws    wd   nox   no2     o3  pm10   so2    co  pm25
##    <dbl> <ord>     <dbl> <dbl> <dbl> <dbl>  <dbl> <dbl> <dbl> <dbl> <dbl>
##  1  1998 January    5.09  171.  168.  42.2   4.35  29.2  5.18  1.95 NaN  
##  2  1998 February   4.26  217.  284.  58.3   2.49  40.2  9.65  2.90 NaN  
##  3  1998 March      4.67  225.  194.  49.7   5.29  32.7  8.98  2.05 NaN  
##  4  1998 April      4.20  206.  177.  47.9   8.81  28.9  6.60  1.78 NaN  
##  5  1998 May        3.46  163.  122.  43.7   9.46  32.5  4.95  1.25  21.0
##  6  1998 June       4.93  219.  197.  47.1   5.51  33.0  6.30  2.05  20  
##  7  1998 July       4.83  234.  191.  46.5 NaN     30.9  6.82  2.10  18.8
##  8  1998 August     3.91  234.  171.  46.9   6.08  31.4  6.31  1.76  20.2
##  9  1998 September  3.16  194.  182.  49.1   5.25  35.7  8.45  2.05  24.3
## 10  1998 October    5.29  213.  205.  45.4   5.22  28.4  5.18  2.28  18.4
## # … with 80 more rows
